Pacote ggplot2: um curso introdutório | Henrique JP Alves
…
summarize(data, mean_newdeaths=mean(newDeaths), desv_pad= sd(newDeaths),
                  standard_error=desv_pad/sqrt(length(data)))

##   mean_newdeaths desv_pad standard_error
## 1       23.27518  64.2568       18.54934

group_by(data, region, epi_week)

## # A tibble: 28,323 x 12
## # Groups:   region, epi_week [265]
##    region state date       epi_week newCases accumCases newDeaths accumDeaths
##    <chr>  <chr> <date>        <int>    <int>      <int>     <int>       <int>
##  1 North  RO    2020-02-25        9        0          0         0           0
##  2 North  RO    2020-02-26        9        0          0         0           0
##  3 North  RO    2020-02-27        9        0          0         0           0
##  4 North  RO    2020-02-28        9        0          0         0           0
##  5 North  RO    2020-02-29        9        0          0         0           0
##  6 North  RO    2020-03-01       10        0          0         0           0
##  7 North  RO    2020-03-02       10        0          0         0           0
##  8 North  RO    2020-03-03       10        0          0         0           0
##  9 North  RO    2020-03-04       10        0          0         0           0
## 10 North  RO    2020-03-05       10        0          0         0           0
## # ... with 28,313 more rows, and 4 more variables: newRecovered <int>,
## #   newFollowup <int>, pop <dbl>, state_code <int>
…
